"category"	"numDEInCat"	"numUpInCat"	"numInCat"	"percent_up"	"percent_de"	"over.fdr"	"under.fdr"	"term"
"GO:0010598"	11	11	11	100	100	7.47473554077071e-05	1	"NAD(P)H dehydrogenase complex (plastoquinone)"
"GO:0009827"	156	3	171	1.9	91.2	2.63083763098477e-60	1	"plant-type cell wall modification"
"GO:0019953"	18	2	20	11.1	90	2.22864810069798e-06	1	"sexual reproduction"
"GO:0010584"	52	0	59	0	88.1	4.71414151373419e-18	1	"pollen exine formation"
"GO:0009773"	43	43	49	100	87.8	4.71907733616648e-15	1	"photosynthetic electron transport in photosystem I"
"GO:0009657"	69	68	81	98.6	85.2	1.78456412591017e-22	1	"plastid organization"
"GO:0030095"	17	17	20	100	85	1.22917135531449e-05	1	"chloroplast photosystem II"
"GO:0019760"	28	23	33	82.1	84.8	1.4795687125637e-08	1	"glucosinolate metabolic process"
"GO:0006098"	142	136	176	95.8	80.7	3.22637656425045e-41	1	"pentose-phosphate shunt"
"GO:0034660"	62	62	77	100	80.5	4.75205790399823e-17	1	"ncRNA metabolic process"
"GO:0009902"	77	77	96	100	80.2	4.00249682987272e-21	1	"chloroplast relocation"
"GO:0015995"	86	80	109	93	78.9	7.5807507443883e-23	1	"chlorophyll biosynthetic process"
"GO:0090406"	29	1	37	3.4	78.4	2.12411677478304e-07	1	"pollen tube"
"GO:0019288"	178	170	228	95.5	78.1	4.02694050444625e-47	1	"isopentenyl diphosphate biosynthetic process, methylerythritol 4-phosphate pathway"
"GO:0006733"	31	26	40	83.9	77.5	1.1592050989281e-07	1	"oxidoreduction coenzyme metabolic process"
"GO:0006766"	31	26	40	83.9	77.5	1.1592050989281e-07	1	"vitamin metabolic process"
"GO:0009106"	31	26	40	83.9	77.5	1.1592050989281e-07	1	"lipoate metabolic process"
"GO:0009108"	31	26	40	83.9	77.5	1.1592050989281e-07	1	"coenzyme biosynthetic process"
"GO:0044272"	31	26	40	83.9	77.5	1.1592050989281e-07	1	"sulfur compound biosynthetic process"
"GO:0016117"	74	69	96	93.2	77.1	2.73880950211718e-18	1	"carotenoid biosynthetic process"
"GO:0048868"	46	2	60	4.3	76.7	1.81563211400218e-11	1	"pollen tube development"
"GO:0009860"	188	5	248	2.7	75.8	4.02694050444625e-47	1	"pollen tube growth"
"GO:0009072"	31	26	41	83.9	75.6	3.21813275651205e-07	1	"aromatic amino acid family metabolic process"
"GO:0000023"	112	109	150	97.3	74.7	3.06104800831821e-26	1	"maltose metabolic process"
"GO:0006636"	50	43	67	86	74.6	1.79286360899627e-11	1	"unsaturated fatty acid biosynthetic process"
"GO:0010155"	57	54	77	94.7	74	4.84429588202382e-13	1	"regulation of proton transport"
"GO:0006546"	36	31	49	86.1	73.5	6.58537345761445e-08	1	"glycine catabolic process"
"GO:0019748"	33	26	45	78.8	73.3	3.63592272493457e-07	1	"secondary metabolic process"
"GO:0043085"	76	72	104	94.7	73.1	5.40855694118018e-17	1	"positive regulation of catalytic activity"
"GO:0010027"	144	141	198	97.9	72.7	7.30983348924478e-32	1	"thylakoid membrane organization"
"GO:0009535"	198	193	274	97.5	72.3	7.37992237469525e-46	1	"chloroplast thylakoid membrane"
"GO:0009543"	51	49	71	96.1	71.8	2.32306291830122e-11	1	"chloroplast thylakoid lumen"
"GO:0009637"	74	70	104	94.6	71.2	1.72302924510132e-15	1	"response to blue light"
"GO:0019252"	133	126	187	94.7	71.1	1.11720080770056e-27	1	"starch biosynthetic process"
"GO:0016556"	71	70	100	98.6	71	1.29435451833332e-14	1	"mRNA modification"
"GO:0009814"	60	60	85	100	70.6	1.96034934392102e-12	1	"defense response, incompatible interaction"
"GO:0045088"	31	30	44	96.8	70.5	2.52477804522375e-06	1	"regulation of innate immune response"
"GO:0010114"	69	61	98	88.4	70.4	2.87501247876366e-14	1	"response to red light"
"GO:0019684"	104	103	148	99	70.3	5.28909665079883e-23	1	"photosynthesis, light reaction"
"GO:0010218"	67	62	96	92.5	69.8	1.69687885824533e-13	1	"response to far red light"
"GO:0043900"	63	62	91	98.4	69.2	3.54957593772695e-12	1	"regulation of multi-organism process"
"GO:0010207"	119	119	173	100	68.8	1.95797542170718e-24	1	"photosystem II assembly"
"GO:0006655"	43	35	63	81.4	68.3	1.05265796108037e-07	1	"phosphatidylglycerol biosynthetic process"
"GO:0042793"	49	49	72	100	68.1	5.09824171362446e-09	1	"transcription from plastid promoter"
"GO:0009117"	32	27	47	84.4	68.1	9.06324979865695e-06	1	"nucleotide metabolic process"
"GO:0009595"	69	68	102	98.6	67.6	1.43337990226007e-12	1	"detection of biotic stimulus"
"GO:0070838"	56	56	83	100	67.5	1.65583075082227e-10	1	"divalent metal ion transport"
"GO:0000096"	31	26	46	83.9	67.4	2.06667493951037e-05	1	"sulfur amino acid metabolic process"
"GO:0035304"	89	87	136	97.8	65.4	4.71705801156829e-15	1	"regulation of protein dephosphorylation"
"GO:0010264"	42	40	65	95.2	64.6	7.79248018767351e-07	1	"myo-inositol hexakisphosphate biosynthetic process"
"GO:0046910"	39	8	61	20.5	63.9	1.36242626605978e-07	1	"pectinesterase inhibitor activity"
"GO:0019761"	105	82	165	78.1	63.6	3.38133436014084e-16	1	"glucosinolate biosynthetic process"
"GO:0030003"	65	65	103	100	63.1	4.01267691422909e-10	1	"cellular cation homeostasis"
"GO:0006364"	138	136	220	98.6	62.7	3.03224208613857e-21	1	"rRNA processing"
"GO:0030154"	86	81	140	94.2	61.4	1.06487854012487e-12	1	"cell differentiation"
"GO:0010287"	41	36	68	87.8	60.3	1.6730065806056e-05	1	"plastoglobule"
"GO:0015979"	112	108	187	96.4	59.9	1.47749877913516e-17	1	"photosynthesis"
"GO:0019344"	121	106	205	87.6	59	1.72302924510132e-15	1	"cysteine biosynthetic process"
"GO:0010310"	107	99	185	92.5	57.8	9.9755497073646e-13	1	"regulation of hydrogen peroxide metabolic process"
"GO:0009697"	120	112	209	93.3	57.4	8.00193051777187e-14	1	"salicylic acid biosynthetic process"
"GO:0009684"	60	40	106	66.7	56.6	1.42842166453454e-06	1	"indoleacetic acid biosynthetic process"
"GO:0016226"	56	49	99	87.5	56.6	4.07026682971866e-06	1	"iron-sulfur cluster assembly"
"GO:0000165"	117	106	207	90.6	56.5	7.79917179044174e-13	1	"MAPK cascade"
"GO:0010103"	79	70	140	88.6	56.4	1.92407035345952e-08	1	"stomatal complex morphogenesis"
"GO:0031347"	56	55	104	98.2	53.8	3.52147983450636e-05	1	"regulation of defense response"
"GO:0042742"	173	151	333	87.3	52	1.29435451833332e-14	1	"defense response to bacterium"
"GO:0009862"	129	115	252	89.1	51.2	3.1411903944203e-10	1	"systemic acquired resistance, salicylic acid mediated signaling pathway"
"GO:0009965"	94	84	185	89.4	50.8	4.65071942565536e-07	1	"leaf morphogenesis"
"GO:0009416"	81	64	161	79	50.3	9.57387079247091e-06	1	"response to light stimulus"
"GO:0031348"	134	116	268	86.6	50	1.31040755868737e-09	1	"negative regulation of defense response"
"GO:0009867"	139	109	279	78.4	49.8	6.95516438894207e-10	1	"jasmonic acid mediated signaling pathway"
"GO:0006952"	164	128	340	78	48.2	9.7906940867719e-11	1	"defense response"
"GO:0006612"	172	149	364	86.6	47.3	6.46943677541258e-10	1	"protein targeting to membrane"
"GO:0010363"	173	150	367	86.7	47.1	6.95516438894207e-10	1	"regulation of plant-type hypersensitive response"
"GO:0009627"	113	91	242	80.5	46.7	2.40839803084277e-06	1	"systemic acquired resistance"
"GO:0050832"	145	122	313	84.1	46.3	6.58537345761445e-08	1	"defense response to fungus"
"GO:0009507"	229	186	521	81.2	44	4.06728360609602e-10	1	"chloroplast"
"GO:0010200"	176	135	421	76.7	41.8	6.65996052066978e-06	1	"response to chitin"
"GO:0016020"	307	129	793	42	38.7	7.24821982773377e-06	1	"membrane"
"GO:0008150"	2128	NA	8197	NA	26	1	0	"biological_process"
"GO:0005634"	385	NA	1642	NA	23.4	1	0	"nucleus"
"GO:0005739"	162	NA	763	NA	21.2	1	2.42251772165719e-06	"mitochondrion"
"GO:0006094"	23	NA	164	NA	14	1	5.91356889479374e-05	"gluconeogenesis"
"GO:0048193"	22	NA	160	NA	13.8	1	6.85687926519543e-05	"Golgi vesicle transport"
"GO:0051567"	24	NA	179	NA	13.4	1	6.11556711756089e-06	"histone H3-K9 methylation"
"GO:0016567"	23	NA	176	NA	13.1	1	6.15837865847885e-06	"protein ubiquitination"
"GO:0009630"	15	NA	126	NA	11.9	1	5.57885111546273e-05	"gravitropism"
"GO:0000278"	18	NA	161	NA	11.2	1	7.99079423371996e-07	"mitotic cell cycle"
"GO:0000911"	21	NA	187	NA	11.2	1	5.35324604455088e-08	"cytokinesis by cell plate formation"
"GO:0006511"	30	NA	267	NA	11.2	1	0	"ubiquitin-dependent protein catabolic process"
"GO:0006346"	13	NA	117	NA	11.1	1	3.92353525846838e-05	"methylation-dependent chromatin silencing"
"GO:0080008"	13	NA	120	NA	10.8	1	2.07037248588378e-05	"Cul4-RING E3 ubiquitin ligase complex"
"GO:0043161"	12	NA	112	NA	10.7	1	9.41725547012162e-05	"proteasome-mediated ubiquitin-dependent protein catabolic process"
"GO:0006342"	13	NA	122	NA	10.7	1	1.38730273120817e-05	"chromatin silencing"
"GO:0010182"	11	NA	106	NA	10.4	1	6.77241254619471e-05	"sugar mediated signaling pathway"
"GO:0051788"	18	NA	182	NA	9.9	1	2.37122989747315e-08	"response to misfolded protein"
"GO:0031048"	11	NA	115	NA	9.6	1	6.11556711756089e-06	"chromatin silencing by small RNA"
"GO:0000226"	13	NA	142	NA	9.2	1	1.62667445382836e-07	"microtubule cytoskeleton organization"
"GO:0000394"	12	NA	136	NA	8.8	1	4.48327798301918e-07	"RNA splicing, via endonucleolytic cleavage and ligation"
"GO:0009640"	18	NA	205	NA	8.8	1	0	"photomorphogenesis"
"GO:0006487"	8	NA	93	NA	8.6	1	2.47063735495151e-05	"protein N-linked glycosylation"
"GO:0006623"	10	NA	118	NA	8.5	1	1.87844094363998e-06	"protein targeting to vacuole"
"GO:0000398"	8	NA	98	NA	8.2	1	1.80101557736314e-05	"mRNA splicing, via spliceosome"
"GO:0080129"	10	NA	126	NA	7.9	1	5.74664868187091e-07	"proteasome core complex assembly"
"GO:0022625"	9	NA	123	NA	7.3	1	5.60910241539482e-06	"cytosolic large ribosomal subunit"
"GO:0006626"	7	NA	103	NA	6.8	1	2.3285536788263e-06	"protein targeting to mitochondrion"
"GO:0043687"	6	NA	94	NA	6.4	1	1.33891377494468e-06	"post-translational protein modification"
"GO:0005743"	5	NA	81	NA	6.2	1	1.30434018324139e-05	"mitochondrial inner membrane"
"GO:0016571"	4	NA	66	NA	6.1	1	8.28369851117226e-05	"histone methylation"
"GO:0022626"	6	NA	98	NA	6.1	1	6.46161555134919e-06	"cytosolic ribosome"
"GO:0009220"	7	NA	131	NA	5.3	1	0	"pyrimidine ribonucleotide biosynthetic process"
"GO:0006414"	10	NA	196	NA	5.1	1	8.44084553472329e-07	"translational elongation"
"GO:0006486"	5	NA	107	NA	4.7	1	0	"protein glycosylation"
"GO:0006606"	4	NA	96	NA	4.2	1	2.37122989747315e-08	"protein import into nucleus"
"GO:0030533"	5	NA	163	NA	3.1	1	1.00401550008889e-06	"triplet codon-amino acid adaptor activity"
"GO:0000956"	3	NA	98	NA	3.1	1	0	"nuclear-transcribed mRNA catabolic process"
"GO:0001510"	4	NA	169	NA	2.4	1	0	"RNA methylation"
"GO:0009560"	3	NA	138	NA	2.2	1	0	"embryo sac egg cell differentiation"
"GO:0005635"	1	NA	50	NA	2	1	3.1246475561122e-05	"nuclear envelope"
"GO:0010388"	2	NA	101	NA	2	1	0	"cullin deneddylation"
"GO:0051604"	1	NA	53	NA	1.9	1	1.38730273120817e-05	"protein maturation"
"GO:0006406"	1	NA	56	NA	1.8	1	5.17858094380487e-06	"mRNA export from nucleus"
